Variable;Description;Type
Sexe;Sexe;factor
AnneeDiplome;Année d’obtention du diplôme;numeric
LieuEtudeSimpl;Lieu des études (simplifié);factor
PratiqueCoursCo;Pratique cours collectifs;factor
RaisonPasCoursCo;Raisons de ne pas donner de cours collectifs;character
RaisonPasAise;Raisons de ne pas pas être à l'aise;character
AutresFormesPrev;Autres formes de prévention;factor
AutresFormesPrevType;Type des autres formes de prévention;character
PrevChangmtOpinion;Changement d’opinion concernant la prévention;character
FormaComplementaire;Formation complémentaire;factor
LieuCoursCo;Lieu des cours collectifs;character
TypePrev;Type de prévention;character
MoyensCoursCo;Moyens utilisés lors des cours collectifs;character
AvantagesCoursCo;Avantages des cours collectifs;character
InconvCoursCo;Inconvénients des cours collectifs;character
NombrePersGroupe;Nombre de personnes dans un groupe;numeric
ConstitutionGroupe;Constitution des groupes;character
PubliciteCoursCo;Publicité pour les cours collectifs;character
ModifPandemie;Modifications des cours collectifs depuis la pandémie;factor
ModifPandemieType;Type de modifications des cours collectifs depuis la pandémie;character
PECCoAutresPatho;Prise en charge collective pour d'autres pathologies;factor
